\relax 
\@writefile{lot}{\contentsline {table}{\numberline {1.}{\ignorespaces {Hans Kruger}}}{1}}
\@writefile{lot}{\contentsline {table}{\numberline {2.}{\ignorespaces {Zbir}}}{8}}
\@writefile{lot}{\contentsline {table}{\numberline {3.}{\ignorespaces {Zbir 2}}}{8}}
\@writefile{lot}{\contentsline {table}{\numberline {4.}{\ignorespaces {Zbir 3}}}{8}}
\@writefile{lot}{\contentsline {table}{\numberline {5.}{\ignorespaces {Zbir 4}}}{8}}
